{
  "client_addr": "0.0.0.0",
  "data_dir": "/consul/data-dir",
  "addresses": {
    "https": "127.0.0.1"
  },
  "node_name": "n2",
  "server": true,
  "bind_addr": "0.0.0.0",
  "http_config": {
    "response_headers": {
      "Access-Control-Allow-Origin": "*",
      "X-XSS-Protection": "1; mode=block",
      "X-Frame-Options": "SAMEORIGIN"
    }
  }
}